{
  "ftp":{
    "local-dir" : "./ftp-data",
    "host" : "ftp.tallyroom.vic.gov.au",
    "user" : "",
    "pwd" : "anon"
  },
  "static":{
    "check" : "True",
    "prefix" : "State2018MediaFile",
    "ext" : ".xml",
    "locations" : "PollingLocations",
    "candidates:" : "Candidates",
    "group-tickets" : "GroupsAndTickets"
  },
  "dynamic":{
    "check" : "True",
    "prefix" : "State2018mediafile",
    "ext" : ".zip",
    "lowerH" : "litepplh",
    "upperH" : "liteppuh"
  }

}